{
  "global" : false,
  "host_template_types" : [ "PAGE", "BLOG_POST", "BLOG_LISTING" ],
  "module_id" : 66411756213,
  "label" : "PMG background Image Text 2022",
  "is_available_for_new_content" : true
}