{
  "global" : false,
  "host_template_types" : [ "PAGE", "BLOG_POST", "BLOG_LISTING" ],
  "module_id" : 56865341299,
  "css_assets" : [ {
    "autoload" : true,
    "path" : "../../Code Files/css/Slick.css",
    "name" : "Slick.css"
  }, {
    "autoload" : true,
    "path" : "../../Code Files/css/fancybox.css",
    "name" : "fancybox.css"
  } ],
  "js_assets" : [ {
    "autoload" : true,
    "path" : "../../Code Files/Slick.js",
    "name" : "Slick.js"
  }, {
    "autoload" : true,
    "path" : "../../Code Files/fancybox.js",
    "name" : "fancybox.js"
  } ],
  "label" : "PMG Bullet Slider Text Section",
  "is_available_for_new_content" : true
}